1.37305808	0.17857100
1.41404745	0.00000000
1.45502453	0.17857100
1.47551916	0.35714301
1.49601390	0.53571397
1.50626742	0.89285702
1.52674975	1.25000000
1.53700327	1.60713995
1.54724438	2.14285994
1.55749802	2.85714006
1.56773913	3.57142997
1.57799265	4.28570986
1.58823387	5.35714006
1.59848739	6.42856979
1.60872850	7.32143021
1.61898214	8.39286041
1.62922324	9.28571033
1.63946435	10.00000000
1.65995909	10.17860031
1.67021262	10.00000000
1.68045384	9.46428967
1.69070736	8.57143021
1.70094847	7.50000000
1.71120199	6.07143021
1.73168432	5.35714006
1.74193784	4.10714006
1.75217906	2.85714006
1.76243259	1.78570998
1.77267369	1.07142997
1.78292733	0.89285702
1.79316844	0.53571397
1.80342196	0.35714301
1.82390429	0.17857100
1.85465255	0.35714301
1.88538841	0.17857100
1.91612426	0.00000000
1.95711363	0.17857100
1.98786190	0.17857100
2.00834411	0.35714301
2.01859775	0.53571397
2.02883885	1.07142997
2.03909249	1.60713995
2.04933360	2.14285994
2.05958724	2.85714006
2.06982834	3.92857003
2.08008175	5.00000000
2.09032309	6.25000000
2.10056420	8.57143021
2.11081760	11.07139969
2.12105894	12.67860031
2.13131234	14.10709953
2.14155345	15.00000000
2.15180709	15.89290047
2.18254294	16.60709953
2.19279658	16.07139969
2.20303769	15.17860031
2.21327879	13.92860031
2.22353243	12.85709953
2.23377354	11.78569984
2.24402694	10.53569984
2.25426828	9.28571033
2.26452169	8.03571033
2.27476279	6.96429014
2.28501643	5.89285994
2.29525754	4.82143021
2.30549864	3.92857003
2.31575228	3.21428990
2.33624703	2.85714006
2.35674177	3.21428990
2.36698288	3.03571010
2.38747763	2.32142997
2.39771873	2.14285994
2.40797213	1.96429002
2.44896163	2.14285994
2.46945637	2.32142997
2.48993858	2.50000000
2.50019222	2.67857003
2.52068697	2.67857003
2.53092807	2.85714006
2.54118148	3.57142997
2.55142282	3.92857003
2.56167622	4.46429014
2.57191733	4.64285994
2.58215867	4.82143021
2.59241207	5.17856979
2.60265318	5.35714006
2.61290682	5.71429014
2.62314792	6.42856979
2.63340156	7.14285994
2.64364267	8.39286041
2.65389631	9.82143021
2.66413742	11.60709953
2.67437852	16.07139969
2.68463216	19.64290047
